<?xml version='1.0'?>
<ns2:test-suite xmlns:ns2='urn:model.allure.qatools.yandex.ru' start='1675650951214' stop='1675651218984'>
    <name>login:</name>
    <title>login:</title>
    <test-cases>
        <test-case start='1675650951462' status='passed' stop='1675650955654'>
            <name>LOGIN COM SUCESSO @sucesso</name>
            <title>LOGIN COM SUCESSO @sucesso</title>
            <labels>
                <label name='tag' value='@sucesso'/>
            </labels>
            <parameters/>
            <steps>
                <step start='1675650951540' status='passed' stop='1675650952154'>
                    <name>I am on page "http://automationpratice.com.br/"</name>
                    <title>I am on page "http://automationpratice.com.br/"</title>
                    <attachments/>
                    <steps/>
                </step>
                <step start='1675650952154' status='passed' stop='1675650952520'>
                    <name>I click "Login"</name>
                    <title>I click "Login"</title>
                    <attachments/>
                    <steps/>
                </step>
                <step start='1675650952520' status='passed' stop='1675650954630'>
                    <name>I wait for text "Login", 10</name>
                    <title>I wait for text "Login", 10</title>
                    <attachments/>
                    <steps/>
                </step>
                <step start='1675650954630' status='passed' stop='1675650955019'>
                    <name>I fill field "#user", "marcos123@123.com"</name>
                    <title>I fill field "#user", "marcos123@123.com"</title>
                    <attachments/>
                    <steps/>
                </step>
                <step start='1675650955020' status='passed' stop='1675650955175'>
                    <name>I click "#password"</name>
                    <title>I click "#password"</title>
                    <attachments/>
                    <steps/>
                </step>
                <step start='1675650955175' status='passed' stop='1675650955471'>
                    <name>I fill field "#password", *****</name>
                    <title>I fill field "#password", *****</title>
                    <attachments/>
                    <steps/>
                </step>
                <step start='1675650955472' status='passed' stop='1675650955649'>
                    <name>I click "#btnLogin"</name>
                    <title>I click "#btnLogin"</title>
                    <attachments/>
                    <steps/>
                </step>
                <step start='1675650955650' status='passed' stop='1675650955654'>
                    <name>I wait for text "Login realizado"</name>
                    <title>I wait for text "Login realizado"</title>
                    <attachments/>
                    <steps/>
                </step>
            </steps>
            <attachments/>
        </test-case>
        <test-case start='1675650955660' status='passed' stop='1675651055368'>
            <name>Tentando Logar digitando apenas o e-mail @onlyEmail</name>
            <title>Tentando Logar digitando apenas o e-mail @onlyEmail</title>
            <labels>
                <label name='tag' value='@onlyEmail'/>
            </labels>
            <parameters/>
            <steps>
                <step start='1675650955726' status='passed' stop='1675651052029'>
                    <name>I am on page "http://automationpratice.com.br/"</name>
                    <title>I am on page "http://automationpratice.com.br/"</title>
                    <attachments/>
                    <steps/>
                </step>
                <step start='1675651052030' status='passed' stop='1675651052356'>
                    <name>I click "Login"</name>
                    <title>I click "Login"</title>
                    <attachments/>
                    <steps/>
                </step>
                <step start='1675651052356' status='passed' stop='1675651054757'>
                    <name>I wait for text "Login", 10</name>
                    <title>I wait for text "Login", 10</title>
                    <attachments/>
                    <steps/>
                </step>
                <step start='1675651054757' status='passed' stop='1675651055200'>
                    <name>I fill field "#user", "marcos123@gmail.com"</name>
                    <title>I fill field "#user", "marcos123@gmail.com"</title>
                    <attachments/>
                    <steps/>
                </step>
                <step start='1675651055200' status='passed' stop='1675651055364'>
                    <name>I click "#btnLogin"</name>
                    <title>I click "#btnLogin"</title>
                    <attachments/>
                    <steps/>
                </step>
                <step start='1675651055364' status='passed' stop='1675651055368'>
                    <name>I wait for text "Senha inválida."</name>
                    <title>I wait for text "Senha inválida."</title>
                    <attachments/>
                    <steps/>
                </step>
            </steps>
            <attachments/>
        </test-case>
        <test-case start='1675651055374' status='passed' stop='1675651193335'>
            <name>Tentando logar sem digitar e-mail e senha @null</name>
            <title>Tentando logar sem digitar e-mail e senha @null</title>
            <labels>
                <label name='tag' value='@null'/>
            </labels>
            <parameters/>
            <steps>
                <step start='1675651055437' status='passed' stop='1675651192409'>
                    <name>I am on page "http://automationpratice.com.br/"</name>
                    <title>I am on page "http://automationpratice.com.br/"</title>
                    <attachments/>
                    <steps/>
                </step>
                <step start='1675651192409' status='passed' stop='1675651192887'>
                    <name>I click "Login"</name>
                    <title>I click "Login"</title>
                    <attachments/>
                    <steps/>
                </step>
                <step start='1675651192887' status='passed' stop='1675651193184'>
                    <name>I wait for text "Login", 10</name>
                    <title>I wait for text "Login", 10</title>
                    <attachments/>
                    <steps/>
                </step>
                <step start='1675651193185' status='passed' stop='1675651193324'>
                    <name>I click "#btnLogin"</name>
                    <title>I click "#btnLogin"</title>
                    <attachments/>
                    <steps/>
                </step>
                <step start='1675651193324' status='passed' stop='1675651193335'>
                    <name>I wait for text "E-mail inválido."</name>
                    <title>I wait for text "E-mail inválido."</title>
                    <attachments/>
                    <steps/>
                </step>
            </steps>
            <attachments/>
        </test-case>
        <test-case start='1675651193339' status='passed' stop='1675651199146'>
            <name>Tentando Logar digitando apenas a senha @onlyPassword</name>
            <title>Tentando Logar digitando apenas a senha @onlyPassword</title>
            <labels>
                <label name='tag' value='@onlyPassword'/>
            </labels>
            <parameters/>
            <steps>
                <step start='1675651193414' status='passed' stop='1675651194895'>
                    <name>I am on page "http://automationpratice.com.br/"</name>
                    <title>I am on page "http://automationpratice.com.br/"</title>
                    <attachments/>
                    <steps/>
                </step>
                <step start='1675651194895' status='passed' stop='1675651195350'>
                    <name>I click "Login"</name>
                    <title>I click "Login"</title>
                    <attachments/>
                    <steps/>
                </step>
                <step start='1675651195350' status='passed' stop='1675651198470'>
                    <name>I wait for text "Login", 10</name>
                    <title>I wait for text "Login", 10</title>
                    <attachments/>
                    <steps/>
                </step>
                <step start='1675651198470' status='passed' stop='1675651198626'>
                    <name>I click "#password"</name>
                    <title>I click "#password"</title>
                    <attachments/>
                    <steps/>
                </step>
                <step start='1675651198626' status='passed' stop='1675651198966'>
                    <name>I fill field "#password", *****</name>
                    <title>I fill field "#password", *****</title>
                    <attachments/>
                    <steps/>
                </step>
                <step start='1675651198967' status='passed' stop='1675651199129'>
                    <name>I click "#btnLogin"</name>
                    <title>I click "#btnLogin"</title>
                    <attachments/>
                    <steps/>
                </step>
                <step start='1675651199130' status='passed' stop='1675651199146'>
                    <name>I wait for text "E-mail inválido."</name>
                    <title>I wait for text "E-mail inválido."</title>
                    <attachments/>
                    <steps/>
                </step>
            </steps>
            <attachments/>
        </test-case>
        <test-case start='1675651199154' status='passed' stop='1675651210173'>
            <name>Criando Cadastro com sucesso @creatAccount</name>
            <title>Criando Cadastro com sucesso @creatAccount</title>
            <labels>
                <label name='tag' value='@creatAccount'/>
            </labels>
            <parameters/>
            <steps>
                <step start='1675651199223' status='passed' stop='1675651202562'>
                    <name>I am on page "https://automationexercise.com/"</name>
                    <title>I am on page "https://automationexercise.com/"</title>
                    <attachments/>
                    <steps/>
                </step>
                <step start='1675651202562' status='passed' stop='1675651202918'>
                    <name>I click "Signup / Login"</name>
                    <title>I click "Signup / Login"</title>
                    <attachments/>
                    <steps/>
                </step>
                <step start='1675651202918' status='passed' stop='1675651203282'>
                    <name>I fill field "//*[@id="form"]/div/div/div[3]/div/form/input[2]", "Barbara Veum II"</name>
                    <title>I fill field "//*[@id="form"]/div/div/div[3]/div/form/input[2]", "Barbara Veum II"</title>
                    <attachments/>
                    <steps/>
                </step>
                <step start='1675651203282' status='passed' stop='1675651203858'>
                    <name>I fill field "//*[@id="form"]/div/div/div[3]/div/form/input[3]", "Chanelle_Raynor27@gmail.com"</name>
                    <title>I fill field "//*[@id="form"]/div/div/div[3]/div/form/input[3]", "Chanelle_Raynor27@gmail.com"</title>
                    <attachments/>
                    <steps/>
                </step>
                <step start='1675651203858' status='passed' stop='1675651204204'>
                    <name>I click "Signup"</name>
                    <title>I click "Signup"</title>
                    <attachments/>
                    <steps/>
                </step>
                <step start='1675651204204' status='passed' stop='1675651204356'>
                    <name>I click "#id_gender1"</name>
                    <title>I click "#id_gender1"</title>
                    <attachments/>
                    <steps/>
                </step>
                <step start='1675651204356' status='passed' stop='1675651204773'>
                    <name>I fill field "#password", "b1Mg3Dv0NAemgKj"</name>
                    <title>I fill field "#password", "b1Mg3Dv0NAemgKj"</title>
                    <attachments/>
                    <steps/>
                </step>
                <step start='1675651204773' status='passed' stop='1675651204919'>
                    <name>I scroll to "#days"</name>
                    <title>I scroll to "#days"</title>
                    <attachments/>
                    <steps/>
                </step>
                <step start='1675651204920' status='passed' stop='1675651205044'>
                    <name>I select option "#days", "19"</name>
                    <title>I select option "#days", "19"</title>
                    <attachments/>
                    <steps/>
                </step>
                <step start='1675651205044' status='passed' stop='1675651205162'>
                    <name>I select option "#months", "1"</name>
                    <title>I select option "#months", "1"</title>
                    <attachments/>
                    <steps/>
                </step>
                <step start='1675651205162' status='passed' stop='1675651205278'>
                    <name>I select option "#years", "1999"</name>
                    <title>I select option "#years", "1999"</title>
                    <attachments/>
                    <steps/>
                </step>
                <step start='1675651205278' status='passed' stop='1675651205283'>
                    <name>I wait for text "ADDRESS INFORMATION", 10</name>
                    <title>I wait for text "ADDRESS INFORMATION", 10</title>
                    <attachments/>
                    <steps/>
                </step>
                <step start='1675651205283' status='passed' stop='1675651205653'>
                    <name>I fill field "#first_name", "Barbara Veum II"</name>
                    <title>I fill field "#first_name", "Barbara Veum II"</title>
                    <attachments/>
                    <steps/>
                </step>
                <step start='1675651205653' status='passed' stop='1675651205915'>
                    <name>I fill field "#last_name", "Schmeler"</name>
                    <title>I fill field "#last_name", "Schmeler"</title>
                    <attachments/>
                    <steps/>
                </step>
                <step start='1675651205916' status='passed' stop='1675651206333'>
                    <name>I fill field "#company", "Spinka - Balistreri"</name>
                    <title>I fill field "#company", "Spinka - Balistreri"</title>
                    <attachments/>
                    <steps/>
                </step>
                <step start='1675651206333' status='passed' stop='1675651206474'>
                    <name>I scroll to "#address1"</name>
                    <title>I scroll to "#address1"</title>
                    <attachments/>
                    <steps/>
                </step>
                <step start='1675651206474' status='passed' stop='1675651206909'>
                    <name>I fill field "#address1", "69690 Denesik Course"</name>
                    <title>I fill field "#address1", "69690 Denesik Course"</title>
                    <attachments/>
                    <steps/>
                </step>
                <step start='1675651206910' status='passed' stop='1675651207160'>
                    <name>I fill field "#address2", "Apt. 483"</name>
                    <title>I fill field "#address2", "Apt. 483"</title>
                    <attachments/>
                    <steps/>
                </step>
                <step start='1675651207160' status='passed' stop='1675651207271'>
                    <name>I select option "#country", "New Zealand"</name>
                    <title>I select option "#country", "New Zealand"</title>
                    <attachments/>
                    <steps/>
                </step>
                <step start='1675651207271' status='passed' stop='1675651207488'>
                    <name>I fill field "#state", "Kansas"</name>
                    <title>I fill field "#state", "Kansas"</title>
                    <attachments/>
                    <steps/>
                </step>
                <step start='1675651207488' status='passed' stop='1675651207831'>
                    <name>I fill field "#city", "Simonisshire"</name>
                    <title>I fill field "#city", "Simonisshire"</title>
                    <attachments/>
                    <steps/>
                </step>
                <step start='1675651207831' status='passed' stop='1675651208037'>
                    <name>I fill field "#zipcode", "05109"</name>
                    <title>I fill field "#zipcode", "05109"</title>
                    <attachments/>
                    <steps/>
                </step>
                <step start='1675651208037' status='passed' stop='1675651208489'>
                    <name>I fill field "#mobile_number", "1-276-277-7243 x53244"</name>
                    <title>I fill field "#mobile_number", "1-276-277-7243 x53244"</title>
                    <attachments/>
                    <steps/>
                </step>
                <step start='1675651208489' status='passed' stop='1675651210163'>
                    <name>I click "Create Account"</name>
                    <title>I click "Create Account"</title>
                    <attachments/>
                    <steps/>
                </step>
                <step start='1675651210163' status='passed' stop='1675651210173'>
                    <name>I wait for text "Continue", 10</name>
                    <title>I wait for text "Continue", 10</title>
                    <attachments/>
                    <steps/>
                </step>
            </steps>
            <attachments/>
        </test-case>
        <test-case start='1675651210179' status='passed' stop='1675651218979'>
            <name>Login with success @with</name>
            <title>Login with success @with</title>
            <labels>
                <label name='tag' value='@with'/>
            </labels>
            <parameters/>
            <steps>
                <step start='1675651210242' status='passed' stop='1675651215816'>
                    <name>I am on page "https://automationexercise.com/"</name>
                    <title>I am on page "https://automationexercise.com/"</title>
                    <attachments/>
                    <steps/>
                </step>
                <step start='1675651215816' status='passed' stop='1675651216176'>
                    <name>I click "Signup / Login"</name>
                    <title>I click "Signup / Login"</title>
                    <attachments/>
                    <steps/>
                </step>
                <step start='1675651216176' status='passed' stop='1675651216657'>
                    <name>I fill field "//*[@id="form"]/div/div/div[3]/div/form/input[2]", "Marcos Fideles"</name>
                    <title>I fill field "//*[@id="form"]/div/div/div[3]/div/form/input[2]", "Marcos Fideles"</title>
                    <attachments/>
                    <steps/>
                </step>
                <step start='1675651216657' status='passed' stop='1675651217101'>
                    <name>I fill field "//*[@id="form"]/div/div/div[3]/div/form/input[3]", "marcos1234@gmail.com"</name>
                    <title>I fill field "//*[@id="form"]/div/div/div[3]/div/form/input[3]", "marcos1234@gmail.com"</title>
                    <attachments/>
                    <steps/>
                </step>
                <step start='1675651217101' status='passed' stop='1675651218979'>
                    <name>I click "Signup"</name>
                    <title>I click "Signup"</title>
                    <attachments/>
                    <steps/>
                </step>
            </steps>
            <attachments/>
        </test-case>
    </test-cases>
</ns2:test-suite>