<?xml version='1.0'?>
<ns2:test-suite xmlns:ns2='urn:model.allure.qatools.yandex.ru' start='1675815153417' stop='1675815190579'>
    <name>login:</name>
    <title>login:</title>
    <test-cases>
        <test-case start='1675815153669' status='passed' stop='1675815157825'>
            <name>LOGIN COM SUCESSO @sucesso</name>
            <title>LOGIN COM SUCESSO @sucesso</title>
            <labels>
                <label name='tag' value='@sucesso'/>
            </labels>
            <parameters/>
            <steps>
                <step start='1675815153746' status='passed' stop='1675815154379'>
                    <name>I am on page "http://automationpratice.com.br/"</name>
                    <title>I am on page "http://automationpratice.com.br/"</title>
                    <attachments/>
                    <steps/>
                </step>
                <step start='1675815154380' status='passed' stop='1675815154706'>
                    <name>I click "Login"</name>
                    <title>I click "Login"</title>
                    <attachments/>
                    <steps/>
                </step>
                <step start='1675815154706' status='passed' stop='1675815156839'>
                    <name>I wait for text "Login", 10</name>
                    <title>I wait for text "Login", 10</title>
                    <attachments/>
                    <steps/>
                </step>
                <step start='1675815156839' status='passed' stop='1675815157231'>
                    <name>I fill field "#user", "marcos123@123.com"</name>
                    <title>I fill field "#user", "marcos123@123.com"</title>
                    <attachments/>
                    <steps/>
                </step>
                <step start='1675815157231' status='passed' stop='1675815157386'>
                    <name>I click "#password"</name>
                    <title>I click "#password"</title>
                    <attachments/>
                    <steps/>
                </step>
                <step start='1675815157386' status='passed' stop='1675815157666'>
                    <name>I fill field "#password", *****</name>
                    <title>I fill field "#password", *****</title>
                    <attachments/>
                    <steps/>
                </step>
                <step start='1675815157666' status='passed' stop='1675815157822'>
                    <name>I click "#btnLogin"</name>
                    <title>I click "#btnLogin"</title>
                    <attachments/>
                    <steps/>
                </step>
                <step start='1675815157822' status='passed' stop='1675815157825'>
                    <name>I wait for text "Login realizado"</name>
                    <title>I wait for text "Login realizado"</title>
                    <attachments/>
                    <steps/>
                </step>
            </steps>
            <attachments/>
        </test-case>
        <test-case start='1675815157833' status='passed' stop='1675815165986'>
            <name>Tentando Logar digitando apenas o e-mail @onlyEmail</name>
            <title>Tentando Logar digitando apenas o e-mail @onlyEmail</title>
            <labels>
                <label name='tag' value='@onlyEmail'/>
            </labels>
            <parameters/>
            <steps>
                <step start='1675815157896' status='passed' stop='1675815165036'>
                    <name>I am on page "http://automationpratice.com.br/"</name>
                    <title>I am on page "http://automationpratice.com.br/"</title>
                    <attachments/>
                    <steps/>
                </step>
                <step start='1675815165037' status='passed' stop='1675815165207'>
                    <name>I click "Login"</name>
                    <title>I click "Login"</title>
                    <attachments/>
                    <steps/>
                </step>
                <step start='1675815165208' status='passed' stop='1675815165379'>
                    <name>I wait for text "Login", 10</name>
                    <title>I wait for text "Login", 10</title>
                    <attachments/>
                    <steps/>
                </step>
                <step start='1675815165379' status='passed' stop='1675815165824'>
                    <name>I fill field "#user", "marcos123@gmail.com"</name>
                    <title>I fill field "#user", "marcos123@gmail.com"</title>
                    <attachments/>
                    <steps/>
                </step>
                <step start='1675815165824' status='passed' stop='1675815165979'>
                    <name>I click "#btnLogin"</name>
                    <title>I click "#btnLogin"</title>
                    <attachments/>
                    <steps/>
                </step>
                <step start='1675815165979' status='passed' stop='1675815165986'>
                    <name>I wait for text "Senha inválida."</name>
                    <title>I wait for text "Senha inválida."</title>
                    <attachments/>
                    <steps/>
                </step>
            </steps>
            <attachments/>
        </test-case>
        <test-case start='1675815165992' status='passed' stop='1675815168301'>
            <name>Tentando logar sem digitar e-mail e senha @null</name>
            <title>Tentando logar sem digitar e-mail e senha @null</title>
            <labels>
                <label name='tag' value='@null'/>
            </labels>
            <parameters/>
            <steps>
                <step start='1675815166072' status='passed' stop='1675815166612'>
                    <name>I am on page "http://automationpratice.com.br/"</name>
                    <title>I am on page "http://automationpratice.com.br/"</title>
                    <attachments/>
                    <steps/>
                </step>
                <step start='1675815166613' status='passed' stop='1675815167077'>
                    <name>I click "Login"</name>
                    <title>I click "Login"</title>
                    <attachments/>
                    <steps/>
                </step>
                <step start='1675815167078' status='passed' stop='1675815168147'>
                    <name>I wait for text "Login", 10</name>
                    <title>I wait for text "Login", 10</title>
                    <attachments/>
                    <steps/>
                </step>
                <step start='1675815168147' status='passed' stop='1675815168297'>
                    <name>I click "#btnLogin"</name>
                    <title>I click "#btnLogin"</title>
                    <attachments/>
                    <steps/>
                </step>
                <step start='1675815168297' status='passed' stop='1675815168301'>
                    <name>I wait for text "E-mail inválido."</name>
                    <title>I wait for text "E-mail inválido."</title>
                    <attachments/>
                    <steps/>
                </step>
            </steps>
            <attachments/>
        </test-case>
        <test-case start='1675815168304' status='passed' stop='1675815173759'>
            <name>Tentando Logar digitando apenas a senha @onlyPassword</name>
            <title>Tentando Logar digitando apenas a senha @onlyPassword</title>
            <labels>
                <label name='tag' value='@onlyPassword'/>
            </labels>
            <parameters/>
            <steps>
                <step start='1675815168371' status='passed' stop='1675815169576'>
                    <name>I am on page "http://automationpratice.com.br/"</name>
                    <title>I am on page "http://automationpratice.com.br/"</title>
                    <attachments/>
                    <steps/>
                </step>
                <step start='1675815169576' status='passed' stop='1675815169947'>
                    <name>I click "Login"</name>
                    <title>I click "Login"</title>
                    <attachments/>
                    <steps/>
                </step>
                <step start='1675815169947' status='passed' stop='1675815173153'>
                    <name>I wait for text "Login", 10</name>
                    <title>I wait for text "Login", 10</title>
                    <attachments/>
                    <steps/>
                </step>
                <step start='1675815173154' status='passed' stop='1675815173301'>
                    <name>I click "#password"</name>
                    <title>I click "#password"</title>
                    <attachments/>
                    <steps/>
                </step>
                <step start='1675815173301' status='passed' stop='1675815173615'>
                    <name>I fill field "#password", *****</name>
                    <title>I fill field "#password", *****</title>
                    <attachments/>
                    <steps/>
                </step>
                <step start='1675815173615' status='passed' stop='1675815173756'>
                    <name>I click "#btnLogin"</name>
                    <title>I click "#btnLogin"</title>
                    <attachments/>
                    <steps/>
                </step>
                <step start='1675815173756' status='passed' stop='1675815173759'>
                    <name>I wait for text "E-mail inválido."</name>
                    <title>I wait for text "E-mail inválido."</title>
                    <attachments/>
                    <steps/>
                </step>
            </steps>
            <attachments/>
        </test-case>
        <test-case start='1675815173763' status='passed' stop='1675815185329'>
            <name>Criando Cadastro com sucesso @creatAccount</name>
            <title>Criando Cadastro com sucesso @creatAccount</title>
            <labels>
                <label name='tag' value='@creatAccount'/>
            </labels>
            <parameters/>
            <steps>
                <step start='1675815173832' status='passed' stop='1675815177595'>
                    <name>I am on page "https://automationexercise.com/"</name>
                    <title>I am on page "https://automationexercise.com/"</title>
                    <attachments/>
                    <steps/>
                </step>
                <step start='1675815177595' status='passed' stop='1675815177965'>
                    <name>I click "Signup / Login"</name>
                    <title>I click "Signup / Login"</title>
                    <attachments/>
                    <steps/>
                </step>
                <step start='1675815177965' status='passed' stop='1675815178413'>
                    <name>I fill field "//*[@id="form"]/div/div/div[3]/div/form/input[2]", "Dr. Julie Powlowski"</name>
                    <title>I fill field "//*[@id="form"]/div/div/div[3]/div/form/input[2]", "Dr. Julie Powlowski"</title>
                    <attachments/>
                    <steps/>
                </step>
                <step start='1675815178413' status='passed' stop='1675815179000'>
                    <name>I fill field "//*[@id="form"]/div/div/div[3]/div/form/input[3]", "Giovanni_Baumbach@gmail.com"</name>
                    <title>I fill field "//*[@id="form"]/div/div/div[3]/div/form/input[3]", "Giovanni_Baumbach@gmail.com"</title>
                    <attachments/>
                    <steps/>
                </step>
                <step start='1675815179000' status='passed' stop='1675815179344'>
                    <name>I click "Signup"</name>
                    <title>I click "Signup"</title>
                    <attachments/>
                    <steps/>
                </step>
                <step start='1675815179345' status='passed' stop='1675815179499'>
                    <name>I click "#id_gender1"</name>
                    <title>I click "#id_gender1"</title>
                    <attachments/>
                    <steps/>
                </step>
                <step start='1675815179499' status='passed' stop='1675815179908'>
                    <name>I fill field "#password", "7urZ9rQlsV48wvy"</name>
                    <title>I fill field "#password", "7urZ9rQlsV48wvy"</title>
                    <attachments/>
                    <steps/>
                </step>
                <step start='1675815179909' status='passed' stop='1675815180070'>
                    <name>I scroll to "#days"</name>
                    <title>I scroll to "#days"</title>
                    <attachments/>
                    <steps/>
                </step>
                <step start='1675815180070' status='passed' stop='1675815180180'>
                    <name>I select option "#days", "19"</name>
                    <title>I select option "#days", "19"</title>
                    <attachments/>
                    <steps/>
                </step>
                <step start='1675815180180' status='passed' stop='1675815180304'>
                    <name>I select option "#months", "1"</name>
                    <title>I select option "#months", "1"</title>
                    <attachments/>
                    <steps/>
                </step>
                <step start='1675815180304' status='passed' stop='1675815180427'>
                    <name>I select option "#years", "1999"</name>
                    <title>I select option "#years", "1999"</title>
                    <attachments/>
                    <steps/>
                </step>
                <step start='1675815180427' status='passed' stop='1675815180432'>
                    <name>I wait for text "ADDRESS INFORMATION", 10</name>
                    <title>I wait for text "ADDRESS INFORMATION", 10</title>
                    <attachments/>
                    <steps/>
                </step>
                <step start='1675815180432' status='passed' stop='1675815180848'>
                    <name>I fill field "#first_name", "Dr. Julie Powlowski"</name>
                    <title>I fill field "#first_name", "Dr. Julie Powlowski"</title>
                    <attachments/>
                    <steps/>
                </step>
                <step start='1675815180848' status='passed' stop='1675815181097'>
                    <name>I fill field "#last_name", "Parisian"</name>
                    <title>I fill field "#last_name", "Parisian"</title>
                    <attachments/>
                    <steps/>
                </step>
                <step start='1675815181097' status='passed' stop='1675815181706'>
                    <name>I fill field "#company", "Schuppe, Schimmel and Aufderhar"</name>
                    <title>I fill field "#company", "Schuppe, Schimmel and Aufderhar"</title>
                    <attachments/>
                    <steps/>
                </step>
                <step start='1675815181706' status='passed' stop='1675815181861'>
                    <name>I scroll to "#address1"</name>
                    <title>I scroll to "#address1"</title>
                    <attachments/>
                    <steps/>
                </step>
                <step start='1675815181861' status='passed' stop='1675815182221'>
                    <name>I fill field "#address1", "4820 Holly Pass"</name>
                    <title>I fill field "#address1", "4820 Holly Pass"</title>
                    <attachments/>
                    <steps/>
                </step>
                <step start='1675815182222' status='passed' stop='1675815182485'>
                    <name>I fill field "#address2", "Suite 143"</name>
                    <title>I fill field "#address2", "Suite 143"</title>
                    <attachments/>
                    <steps/>
                </step>
                <step start='1675815182485' status='passed' stop='1675815182607'>
                    <name>I select option "#country", "New Zealand"</name>
                    <title>I select option "#country", "New Zealand"</title>
                    <attachments/>
                    <steps/>
                </step>
                <step start='1675815182607' status='passed' stop='1675815182809'>
                    <name>I fill field "#state", "Maine"</name>
                    <title>I fill field "#state", "Maine"</title>
                    <attachments/>
                    <steps/>
                </step>
                <step start='1675815182809' status='passed' stop='1675815183121'>
                    <name>I fill field "#city", "Baileycester"</name>
                    <title>I fill field "#city", "Baileycester"</title>
                    <attachments/>
                    <steps/>
                </step>
                <step start='1675815183121' status='passed' stop='1675815183403'>
                    <name>I fill field "#zipcode", "56258-6296"</name>
                    <title>I fill field "#zipcode", "56258-6296"</title>
                    <attachments/>
                    <steps/>
                </step>
                <step start='1675815183403' status='passed' stop='1675815183715'>
                    <name>I fill field "#mobile_number", "839-345-5078"</name>
                    <title>I fill field "#mobile_number", "839-345-5078"</title>
                    <attachments/>
                    <steps/>
                </step>
                <step start='1675815183715' status='passed' stop='1675815185319'>
                    <name>I click "Create Account"</name>
                    <title>I click "Create Account"</title>
                    <attachments/>
                    <steps/>
                </step>
                <step start='1675815185319' status='passed' stop='1675815185329'>
                    <name>I wait for text "Continue", 10</name>
                    <title>I wait for text "Continue", 10</title>
                    <attachments/>
                    <steps/>
                </step>
            </steps>
            <attachments/>
        </test-case>
        <test-case start='1675815185334' status='passed' stop='1675815190573'>
            <name>Login with success @with</name>
            <title>Login with success @with</title>
            <labels>
                <label name='tag' value='@with'/>
            </labels>
            <parameters/>
            <steps>
                <step start='1675815185401' status='passed' stop='1675815188997'>
                    <name>I am on page "https://automationexercise.com/"</name>
                    <title>I am on page "https://automationexercise.com/"</title>
                    <attachments/>
                    <steps/>
                </step>
                <step start='1675815188997' status='passed' stop='1675815189355'>
                    <name>I click "Signup / Login"</name>
                    <title>I click "Signup / Login"</title>
                    <attachments/>
                    <steps/>
                </step>
                <step start='1675815189356' status='passed' stop='1675815189712'>
                    <name>I fill field "//*[@id="form"]/div/div/div[3]/div/form/input[2]", "Marcos Fideles"</name>
                    <title>I fill field "//*[@id="form"]/div/div/div[3]/div/form/input[2]", "Marcos Fideles"</title>
                    <attachments/>
                    <steps/>
                </step>
                <step start='1675815189712' status='passed' stop='1675815190214'>
                    <name>I fill field "//*[@id="form"]/div/div/div[3]/div/form/input[3]", "marcos1234@gmail.com"</name>
                    <title>I fill field "//*[@id="form"]/div/div/div[3]/div/form/input[3]", "marcos1234@gmail.com"</title>
                    <attachments/>
                    <steps/>
                </step>
                <step start='1675815190214' status='passed' stop='1675815190573'>
                    <name>I click "Signup"</name>
                    <title>I click "Signup"</title>
                    <attachments/>
                    <steps/>
                </step>
            </steps>
            <attachments/>
        </test-case>
    </test-cases>
</ns2:test-suite>